{
	"_id": "1",
	"firstName": "Riza",
	"lastName": "Ayson",
	"email": "aysonrizamayp@gmail.com",
	"password": "ayson123",
	"isAdmin": false,
	"mobileNumber": "09088654149",
}

{
	"_id": "2",
	"firstName": "May",
	"lastName": "Pelayo",
	"email": "aysonrizamayp@gmail1.com",
	"password": "ayson321",
	"isAdmin": true,
	"mobileNumber": "09297323558",
}